…
    ## Warning: Values from `val` are not uniquely identified; output will contain list-cols.
    ## • Use `values_fn = list` to suppress this warning.
    ## • Use `values_fn = {summary_fun}` to summarise duplicates.
    ## • Use the following dplyr code to identify duplicates.
    ##   {data} |>
    ##   dplyr::summarise(n = dplyr::n(), .by = c(thick, alloy, angle, var)) |>
    ##   dplyr::filter(n > 1L)

``` r
df_stang_long
```

    ## # A tibble: 26 × 5
    ##    thick alloy   angle     E    nu
    ##    <dbl> <chr>   <int> <dbl> <dbl>
    ##  1 0.022 al_24st     0 10600 0.321
    ##  2 0.022 al_24st     0 10600 0.323
    ##  3 0.022 al_24st    45 10700 0.329
    ##  4 0.022 al_24st    45 10500 0.331
    ##  5 0.022 al_24st    90 10500 0.31 
    ##  6 0.022 al_24st    90 10700 0.323
    ##  7 0.032 al_24st     0 10400 0.329
    ##  8 0.032 al_24st     0 10300 0.319
    ##  9 0.032 al_24st    45 10400 0.318
    ## 10 0.032 al_24st    45 10500 0.326
    ## # ℹ 16 more rows
…
