…
# Guided EDA

<!-- -------------------------------------------------- -->

First, we’ll go through a round of *guided EDA*. Try to pay attention to
the high-level process we’re going through—after this guided round
you’ll be responsible for doing another cycle of EDA on your own!

### **q0** Perform your “first checks” on the dataset. What variables are in this dataset?

``` r
gapminder 
```

    ## # A tibble: 1,704 × 6
    ##    country     continent  year lifeExp      pop gdpPercap
    ##    <fct>       <fct>     <int>   <dbl>    <int>     <dbl>
    ##  1 Afghanistan Asia       1952    28.8  8425333      779.
    ##  2 Afghanistan Asia       1957    30.3  9240934      821.
    ##  3 Afghanistan Asia       1962    32.0 10267083      853.
    ##  4 Afghanistan Asia       1967    34.0 11537966      836.
    ##  5 Afghanistan Asia       1972    36.1 13079460      740.
    ##  6 Afghanistan Asia       1977    38.4 14880372      786.
    ##  7 Afghanistan Asia       1982    39.9 12881816      978.
    ##  8 Afghanistan Asia       1987    40.8 13867957      852.
    ##  9 Afghanistan Asia       1992    41.7 16317921      649.
    ## 10 Afghanistan Asia       1997    41.8 22227415      635.
    ## # ℹ 1,694 more rows
…
``` r
filt_gapminder <-
  gapminder %>%
  filter(year==year_min, gdpPercap < 90000) %>%
  left_join(whisk_gapminder, by = "continent") %>%
  mutate(in_range = gdpPercap >= low_whisk & gdpPercap <= high_whisk)

filt_gapminder
```

    ## # A tibble: 141 × 9
    ##    country     continent  year lifeExp      pop gdpPercap low_whisk high_whisk
    ##    <fct>       <fct>     <int>   <dbl>    <int>     <dbl>     <dbl>      <dbl>
    ##  1 Afghanistan Asia       1952    28.8  8425333      779.      331       4835.
    ##  2 Albania     Europe     1952    55.2  1282697     1601.      974.     10095.
    ##  3 Algeria     Africa     1952    43.1  9279525     2449.      299.      2719.
    ##  4 Angola      Africa     1952    30.0  4232095     3521.      299.      2719.
    ##  5 Argentina   Americas   1952    62.5 17876956     5911.     1398.      5911.
    ##  6 Australia   Oceania    1952    69.1  8691212    10040.    10040.     10557.
    ##  7 Austria     Europe     1952    66.8  6927772     6137.      974.     10095.
    ##  8 Bahrain     Asia       1952    50.9   120447     9867.      331       4835.
    ##  9 Bangladesh  Asia       1952    37.5 46886859      684.      331       4835.
    ## 10 Belgium     Europe     1952    68    8730405     8343.      974.     10095.
    ## # ℹ 131 more rows
    ## # ℹ 1 more variable: in_range <lgl>
…
