…
``` r
df_pop <- df_pop[, -5] 
colnames(df_pop) <- c("id", "Geographic Area Name", "Estimate!!Total", "Margin of Error!!Total")
df_pop
```

    ## # A tibble: 3,220 × 4
    ##    id            `Geographic Area Name` `Estimate!!Total` Margin of Error!!Tot…¹
    ##    <chr>         <chr>                              <dbl> <chr>                 
    ##  1 0500000US010… Autauga County, Alaba…             55200 *****                 
    ##  2 0500000US010… Baldwin County, Alaba…            208107 *****                 
    ##  3 0500000US010… Barbour County, Alaba…             25782 *****                 
    ##  4 0500000US010… Bibb County, Alabama               22527 *****                 
    ##  5 0500000US010… Blount County, Alabama             57645 *****                 
    ##  6 0500000US010… Bullock County, Alaba…             10352 *****                 
    ##  7 0500000US010… Butler County, Alabama             20025 *****                 
    ##  8 0500000US010… Calhoun County, Alaba…            115098 *****                 
    ##  9 0500000US010… Chambers County, Alab…             33826 *****                 
    ## 10 0500000US010… Cherokee County, Alab…             25853 *****                 
    ## # ℹ 3,210 more rows
    ## # ℹ abbreviated name: ¹​`Margin of Error!!Total`
…
    ## Rows: 2502832 Columns: 6
    ## ── Column specification ────────────────────────────────────────────────────────
    ## Delimiter: ","
    ## chr  (3): county, state, fips
    ## dbl  (2): cases, deaths
    ## date (1): date
    ## 
    ## ℹ Use `spec()` to retrieve the full column specification for this data.
    ## ℹ Specify the column types or set `show_col_types = FALSE` to quiet this message.

``` r
df_covid
```

    ## # A tibble: 2,502,832 × 6
    ##    date       county      state      fips  cases deaths
    ##    <date>     <chr>       <chr>      <chr> <dbl>  <dbl>
    ##  1 2020-01-21 Snohomish   Washington 53061     1      0
    ##  2 2020-01-22 Snohomish   Washington 53061     1      0
    ##  3 2020-01-23 Snohomish   Washington 53061     1      0
    ##  4 2020-01-24 Cook        Illinois   17031     1      0
    ##  5 2020-01-24 Snohomish   Washington 53061     1      0
    ##  6 2020-01-25 Orange      California 06059     1      0
    ##  7 2020-01-25 Cook        Illinois   17031     1      0
    ##  8 2020-01-25 Snohomish   Washington 53061     1      0
    ##  9 2020-01-26 Maricopa    Arizona    04013     1      0
    ## 10 2020-01-26 Los Angeles California 06037     1      0
    ## # ℹ 2,502,822 more rows
…
### **q3** Process the `id` column of `df_pop` to create a `fips` column.

``` r
## TASK: Create a `fips` c(olumn by extracting the county code
df_q3 <- 
  df_pop %>%
  mutate(fips = str_sub(id, -5))
df_q3
```

    ## # A tibble: 3,220 × 5
    ##    id      `Geographic Area Name` `Estimate!!Total` Margin of Error!!Tot…¹ fips 
    ##    <chr>   <chr>                              <dbl> <chr>                  <chr>
    ##  1 050000… Autauga County, Alaba…             55200 *****                  01001
    ##  2 050000… Baldwin County, Alaba…            208107 *****                  01003
    ##  3 050000… Barbour County, Alaba…             25782 *****                  01005
    ##  4 050000… Bibb County, Alabama               22527 *****                  01007
    ##  5 050000… Blount County, Alabama             57645 *****                  01009
    ##  6 050000… Bullock County, Alaba…             10352 *****                  01011
    ##  7 050000… Butler County, Alabama             20025 *****                  01013
    ##  8 050000… Calhoun County, Alaba…            115098 *****                  01015
    ##  9 050000… Chambers County, Alab…             33826 *****                  01017
    ## 10 050000… Cherokee County, Alab…             25853 *****                  01019
    ## # ℹ 3,210 more rows
    ## # ℹ abbreviated name: ¹​`Margin of Error!!Total`
…
### **q4** Join `df_covid` with `df_q3` by the `fips` column. Use the proper type of join to preserve *only* the rows in `df_covid`.

``` r
## TASK: Join df_covid and df_q3 by fips.
df_q4 <- 
  df_q3 %>%
  right_join(
    df_covid,
    df_q3,
    by = "fips"
  )
df_q4
```

    ## # A tibble: 2,502,832 × 10
    ##    id      `Geographic Area Name` `Estimate!!Total` Margin of Error!!Tot…¹ fips 
    ##    <chr>   <chr>                              <dbl> <chr>                  <chr>
    ##  1 050000… Autauga County, Alaba…             55200 *****                  01001
    ##  2 050000… Autauga County, Alaba…             55200 *****                  01001
    ##  3 050000… Autauga County, Alaba…             55200 *****                  01001
    ##  4 050000… Autauga County, Alaba…             55200 *****                  01001
    ##  5 050000… Autauga County, Alaba…             55200 *****                  01001
    ##  6 050000… Autauga County, Alaba…             55200 *****                  01001
    ##  7 050000… Autauga County, Alaba…             55200 *****                  01001
    ##  8 050000… Autauga County, Alaba…             55200 *****                  01001
    ##  9 050000… Autauga County, Alaba…             55200 *****                  01001
    ## 10 050000… Autauga County, Alaba…             55200 *****                  01001
    ## # ℹ 2,502,822 more rows
    ## # ℹ abbreviated name: ¹​`Margin of Error!!Total`
    ## # ℹ 5 more variables: date <date>, county <chr>, state <chr>, cases <dbl>,
    ## #   deaths <dbl>
…
df_data <-
  df_q4 %>%
  select(
    date,
    county,
    state,
    fips,
    cases,
    deaths,
    population = `Estimate!!Total`
  )
df_data
```

    ## # A tibble: 2,502,832 × 7
    ##    date       county  state   fips  cases deaths population
    ##    <date>     <chr>   <chr>   <chr> <dbl>  <dbl>      <dbl>
    ##  1 2020-03-24 Autauga Alabama 01001     1      0      55200
    ##  2 2020-03-25 Autauga Alabama 01001     4      0      55200
    ##  3 2020-03-26 Autauga Alabama 01001     6      0      55200
    ##  4 2020-03-27 Autauga Alabama 01001     6      0      55200
    ##  5 2020-03-28 Autauga Alabama 01001     6      0      55200
    ##  6 2020-03-29 Autauga Alabama 01001     6      0      55200
    ##  7 2020-03-30 Autauga Alabama 01001     7      0      55200
    ##  8 2020-03-31 Autauga Alabama 01001     7      0      55200
    ##  9 2020-04-01 Autauga Alabama 01001    10      0      55200
    ## 10 2020-04-02 Autauga Alabama 01001    10      0      55200
    ## # ℹ 2,502,822 more rows
…
### **q5** Use the `population` estimates in `df_data` to normalize `cases` and `deaths` to produce per 100,000 counts \[3\]. Store these values in the columns `cases_per100k` and `deaths_per100k`.

``` r
## TASK: Normalize cases and deaths
df_normalized <-
  df_data %>%
  mutate (
    cases_per100k = (cases / population) * 100000,
    deaths_per100k = (deaths / population) * 100000
    ) 
df_normalized
```

    ## # A tibble: 2,502,832 × 9
    ##    date       county  state   fips  cases deaths population cases_per100k
    ##    <date>     <chr>   <chr>   <chr> <dbl>  <dbl>      <dbl>         <dbl>
    ##  1 2020-03-24 Autauga Alabama 01001     1      0      55200          1.81
    ##  2 2020-03-25 Autauga Alabama 01001     4      0      55200          7.25
    ##  3 2020-03-26 Autauga Alabama 01001     6      0      55200         10.9 
    ##  4 2020-03-27 Autauga Alabama 01001     6      0      55200         10.9 
    ##  5 2020-03-28 Autauga Alabama 01001     6      0      55200         10.9 
    ##  6 2020-03-29 Autauga Alabama 01001     6      0      55200         10.9 
    ##  7 2020-03-30 Autauga Alabama 01001     7      0      55200         12.7 
    ##  8 2020-03-31 Autauga Alabama 01001     7      0      55200         12.7 
    ##  9 2020-04-01 Autauga Alabama 01001    10      0      55200         18.1 
    ## 10 2020-04-02 Autauga Alabama 01001    10      0      55200         18.1 
    ## # ℹ 2,502,822 more rows
    ## # ℹ 1 more variable: deaths_per100k <dbl>
…
df_uniq_states <-
  df_ressurection %>%
  group_by(state) %>%
  summarize(number_of_death_miscounts = n()) %>%
  arrange(desc(number_of_death_miscounts))
  
df_uniq_states
```

    ## # A tibble: 55 × 2
    ##    state          number_of_death_miscounts
    ##    <chr>                              <int>
    ##  1 Georgia                              150
    ##  2 Texas                                131
    ##  3 Virginia                             128
    ##  4 North Carolina                        91
    ##  5 Tennessee                             91
    ##  6 Missouri                              90
    ##  7 Michigan                              82
    ##  8 Ohio                                  79
    ##  9 Indiana                               72
    ## 10 Arkansas                              70
    ## # ℹ 45 more rows
…
    ## Rows: 51 Columns: 4
    ## ── Column specification ────────────────────────────────────────────────────────
    ## Delimiter: ","
    ## chr (1): state
    ## dbl (3): EV, D, R
    ## 
    ## ℹ Use `spec()` to retrieve the full column specification for this data.
    ## ℹ Specify the column types or set `show_col_types = FALSE` to quiet this message.

``` r
pres_elect_data
```

    ## # A tibble: 51 × 5
    ##    state                   EV     D     R Democrat
    ##    <chr>                <dbl> <dbl> <dbl> <lgl>   
    ##  1 Alabama                  9     0     9 FALSE   
    ##  2 Alaska                   3     0     3 FALSE   
    ##  3 Arizona                 11    11     0 TRUE    
    ##  4 Arkansas                 6     0     6 FALSE   
    ##  5 California              55    55     0 TRUE    
    ##  6 Colorado                 9     9     0 TRUE    
    ##  7 Connecticut              7     7     0 TRUE    
    ##  8 Delaware                 3     3     0 TRUE    
    ##  9 District of Columbia     3     3     0 TRUE    
    ## 10 Florida                 29     0    29 FALSE   
    ## # ℹ 41 more rows
…
