…
### **q1** Go to the [Stanford Open Policing Project](https://openpolicing.stanford.edu/data/) page and download the Massachusetts State Police records in `Rds` format. Move the data to your `data` folder and match the `filename` to load the data.

*Note*: An `Rds` file is an R-specific file format. The function
`readRDS` will read these files.

``` r
## TODO: Download the data, move to your data folder, and load it
filename <- "C:\\Users\\bdeshpande\\Documents\\Data Science\\data-science-s2025\\challenges\\data\\MAstatepatrol.rds"
df_data <- readRDS(filename)

df_data
```

    ## # A tibble: 3,416,238 × 24
    ##    raw_row_number date       location      county_name  subject_age subject_race
    ##    <chr>          <date>     <chr>         <chr>              <int> <fct>       
    ##  1 1              2007-06-06 MIDDLEBOROUGH Plymouth Co…          33 white       
    ##  2 2              2007-06-07 SEEKONK       Bristol Cou…          36 white       
    ##  3 3              2007-06-07 MEDFORD       Middlesex C…          56 white       
    ##  4 4              2007-06-07 MEDFORD       Middlesex C…          37 white       
    ##  5 5              2007-06-07 EVERETT       Middlesex C…          22 hispanic    
    ##  6 6              2007-06-07 MEDFORD       Middlesex C…          34 white       
    ##  7 7              2007-06-07 SOMERVILLE    Middlesex C…          54 hispanic    
    ##  8 8              2007-06-07 HOPKINTON     Middlesex C…          31 hispanic    
    ##  9 9              2007-06-07 SOMERVILLE    Middlesex C…          21 white       
    ## 10 10             2007-06-06 BARNSTABLE    Barnstable …          56 white       
    ## # ℹ 3,416,228 more rows
    ## # ℹ 18 more variables: subject_sex <fct>, type <fct>, arrest_made <lgl>,
    ## #   citation_issued <lgl>, warning_issued <lgl>, outcome <fct>,
    ## #   contraband_found <lgl>, contraband_drugs <lgl>, contraband_weapons <lgl>,
    ## #   contraband_alcohol <lgl>, contraband_other <lgl>, frisk_performed <lgl>,
    ## #   search_conducted <lgl>, search_basis <fct>, reason_for_stop <chr>,
    ## #   vehicle_type <chr>, vehicle_registration_state <fct>, raw_Race <chr>
…
    ## # A tibble: 3 × 2
    ##   same        n
    ##   <lgl>   <int>
    ## 1 FALSE  194867
    ## 2 TRUE  3219707
    ## 3 NA       1664

``` r
df_races
```

    ## # A tibble: 3,416,238 × 3
    ##    raw_row_number sub_lower raw_lower
    ##    <chr>          <chr>     <chr>    
    ##  1 1              white     white    
    ##  2 2              white     white    
    ##  3 3              white     white    
    ##  4 4              white     white    
    ##  5 5              hispanic  hispanic 
    ##  6 6              white     white    
    ##  7 7              hispanic  hispanic 
    ##  8 8              hispanic  hispanic 
    ##  9 9              white     white    
    ## 10 10             white     white    
    ## # ℹ 3,416,228 more rows
…
    ## `summarise()` has grouped output by 'subject_age'. You can override using the
    ## `.groups` argument.

``` r
df_age
```

    ## # A tibble: 81 × 5
    ## # Groups:   subject_age [81]
    ##    subject_age arrest_made     n total    prop
    ##          <int> <lgl>       <int> <int>   <dbl>
    ##  1          10 TRUE            1   398 0.00251
    ##  2          11 TRUE            1   397 0.00252
    ##  3          12 TRUE            3   262 0.0115 
    ##  4          13 TRUE            6   206 0.0291 
    ##  5          14 TRUE           15   306 0.0490 
    ##  6          15 TRUE           44   474 0.0928 
    ##  7          16 TRUE          105  2049 0.0512 
    ##  8          17 TRUE          338 17513 0.0193 
    ##  9          18 TRUE          940 48909 0.0192 
    ## 10          19 TRUE         1667 83065 0.0201 
    ## # ℹ 71 more rows
…
